[
   {
      "nome": "Allanda Soares da Mata Araújo",
      "email": "allandasoares7@gmail.com"
   },
   {
      "nome": "Caio Melo Teixeira",
      "email": "tcx3@outlook.com"
   },
   {
      "nome": "Carlos Beirigo Fernandes",
      "email": "carlosbeirigo3@gmail.com"
   },
   {
      "nome": "Dani Olivieria Tito",
      "email": "davioliveiratito@gmail.com"
   },
   {
      "nome": "Felipe Jhordan Maciel Alves",
      "email": "felipejordan.alves@gmail.com"
   },
   {
      "nome": "Gabriel Henrique de Moraes",
      "email": "gabrielhm2001@gmail.com"
   },
   {
      "nome": "Gabriel Martins Garcia Seco",
      "email": "gabrielmartinsseco@gmail.com"
   },
   {
      "nome": "Hiago Alexandre Pedreira Borges",
      "email": "hiago_pereiraborges@hotmail.com"
   },
   {
      "nome": "Jesiel Fernandes Gama",
      "email": "jesiel_gama1@hotmail.com"
   },
   {
      "nome": "Joice Cristina Alves de Oliveira",
      "email": "joice1509oliveira@gmail.com"
   },
   {
      "nome": "João Gabriel de Matos Andrade",
      "email": "jgmandrade@gmail.com"
   },
   {
      "nome": "João Vítor Borges Santos Alves",
      "email": "joao-salves@hotmail.com"
   },
   {
      "nome": "Lucas Felipe Andrade Amaral",
      "email": "lucasamaralfelipe@outlook.com"
   },
   {
      "nome": "Maquil Gonçalves dos Santos",
      "email": "maquil.sanntos@hotmail.com"
   },
   {
      "nome": "Marco Antonio Guarato Alves",
      "email": "demonhunter1512@gmail.com"
   },
   {
      "nome": "Maria Luisa de Carvalho Mardegan",
      "email": "malumar99@hotmail.com"
   },
   {
      "nome": "Marília Mariana Moraes Gondim",
      "email": "mariliammg@hotmail.com"
   },
   {
      "nome": "Paulo Garcia",
      "email": "paulo.garcia.fl@gmail.com"
   },
   {
      "nome": "Paulo Garcia",
      "email": "paulo.garcia.fl@gmail.com"
   },
   {
      "nome": "Phelype de Pauyla Oliani Ferreira",
      "email": "phelype_dipaula@hotmail.com"
   },
   {
      "nome": "Rafael Carvalho Geraldo",
      "email": "rcg.rafael@bol.com.br"
   },
   {
      "nome": "Rodrigo Miranda Petraglia",
      "email": "ro.miranda93@hotmail.com"
   },
   {
      "nome": "Thiago Minguim de Melo",
      "email": "thiago_minguim@hotmail.com"
   },
   {
      "nome": "Thiago Moreira Rosa",
      "email": "thiago_mr@live.com"
   },
   {
      "nome": "William Josué da Silva",
      "email": "william@iftm.edu.br"
   },
   {
      "nome": "Yaho Luís de Sousa Nunes",
      "email": "yagoldsn@gmail.com"
   },
   {
      "nome": "Ygor Motoki Braga Eloi",
      "email": "ygormotoki@gmail.com"
   }
]